# Blender MTL File: 'With rig peacock.blend'
# Material Count: 1

newmtl Material.010
Ns 225.000000
Ka 1.000000 1.000000 1.000000
Kd 0.800000 0.800000 0.800000
Ks 0.500000 0.500000 0.500000
Ke 0.000000 0.000000 0.000000
Ni 1.450000
d 1.000000
illum 2
map_Bump E:\\#Prasad DATA\\Peacock\\New folder\\2\\Feather_3_Normal.png
map_Kd E:\\#Prasad DATA\\Peacock\\New folder\\2\\Feather_3_Base_Color.png
map_Ns E:\\#Prasad DATA\\Peacock\\New folder\\2\\Feather_3_Roughness.png
refl E:\\#Prasad DATA\\Peacock\\New folder\\2\\Feather_3_Metallic.png
