# Blender MTL File: 'With rig peacock.blend'
# Material Count: 3

newmtl Material.003
Ns 900.000000
Ka 1.000000 1.000000 1.000000
Kd 0.000000 0.000000 0.000000
Ks 0.168317 0.168317 0.168317
Ke 0.000000 0.000000 0.000000
Ni 1.450000
d 1.000000
illum 2

newmtl Material.004
Ns 225.000000
Ka 1.000000 1.000000 1.000000
Kd 0.007760 0.056745 0.147307
Ks 0.500000 0.500000 0.500000
Ke 0.000000 0.000000 0.000000
Ni 1.450000
d 1.000000
illum 2

newmtl PolySphere1_1
Ns 225.000000
Ka 1.000000 1.000000 1.000000
Kd 0.800000 0.800000 0.800000
Ks 0.500000 0.500000 0.500000
Ke 0.000000 0.000000 0.000000
Ni 1.450000
d 1.000000
illum 2
map_Bump -bm 1.200000 E:\\#Prasad DATA\\Peacock\\New folder\\3\\PolySphere1_1_Normal_DirectX.png
map_Kd E:\\#Prasad DATA\\Peacock\\New folder\\3\\PolySphere1_1_Base_Color.png
map_Ns E:\\#Prasad DATA\\Peacock\\New folder\\3\\PolySphere1_1_Roughness.png
refl E:\\#Prasad DATA\\Peacock\\New folder\\3\\PolySphere1_1_Metallic.png
